,name,user_name,Institution,link
0,Navitas,Navitas,"Indian Institute of Information Technology, Allahabad (IIIT Allahabad)",https://www.facebook.com/geeksforgeeks.org/
1,Newest_Era,JustChill,"National Institute of Technology, Surathkal (NIT Surathkal)",0
2,why_not_me,whynotme,Indian Institute of Technology Bombay (IIT Bombay),0
3,everything_is_possible,everythingispossible,"National Institute of Technology, Durgapur (NIT Durgapur)",0
4,PortgasDAce,Nishant Bhardwaj,"Maulana Azad National Institute of Technology, Bhopal (MANIT Bhopal)",0
5,Jihye%20Sofia%20Seo,Jihye Sofia Seo 서지혜 徐智惠,Adspert Bidmanagement GmbH,https://www.linkedin.com/in/jihyeseo/
6,shubhamjain237,Shubham Jain,S&P Global Market Intelligence,0
7,Angry_Coder_G%F0%9F%98%A1,Sunil Pundir,"Maulana Azad National Institute of Technology, Bhopal (MANIT Bhopal)",https://www.facebook.com/sunilpundir34
8,tarun711,Tarun Kamboj,Institute of Engineering and Technology (IET) Lucknow,0
9,RishabhTanwar1,Rishabh Tanwar,Indian Institute of Technology Roorkee (IIT Roorkee),0
10,Vidhayak_Chacha,PaPa,"Netaji Subhas Institute of Technology, Delhi (NSIT)",0
11,Diprotiv%20Sarkar,Diprotiv Sarkar,"Jadavpur University, Kolkata",0
12,L.Lawliet,Amit P.Gupta,"Indian Institute of Information Technology, Allahabad (IIIT Allahabad)",https://github.com/Apfirebolt
13,aroma17,Shreyanshi Singh Distwar,Institute of Engineering and Technology (IET) Lucknow,https://www.linkedin.com/in/shreyanshi-singh-distwar-247b37133/
14,ranjan1119,ranjan burnwal,"Jadavpur University, Kolkata",https://www.linkedin.com/in/ranjan-burnwal-6b336713a
15,Aditya_Saxena,Aditya Saxena,"National Institute of Technology, Tiruchirappalli (NIT Trichy)",https://www.linkedin.com/company/geeksforgeeks/
16,UtkarshMalik,Utkarsh,Vellore Institute of Technology (VIT University),0
17,Julkar9,Julkar9,VisvaBharati University,0
18,paulalexis58,,Sri Ramaswamy Memorial University (SRM University),0
19,mohit_khandelia,m k,Vellore Institute of Technology (VIT University),0
20,shi143din,nihal,nitk,0
21,shaurya024,shaurya khanna,ABES Engineering College Ghaziabad,https://www.facebook.com/shaurya2khanna
22,Chaos_is_not_a_pit,Guruconsolelog(),Indian Institute of Technology Varanasi (IIT BHU),0
23,ADI_MUNDI,adimundi,"National Institute of Technology, Rourkela (NIT Rourkela)",https://www.facebook.com/Acharya Aditya Pratap
24,WrongAnswer,wannabe1,Amity University Noida,0
25,Ivan%20Petrov,,3,0
26,ronitNITT_1234,ranveer,"National Institute of Technology, Tiruchirappalli (NIT Trichy)",0
27,abhishek0002,Abhishek,Institute of Engineering and Technology (IET) Lucknow,0
28,Riya_Suthar,Riya Suthar,"National Institute of Technology, Kurukshetra (NIT Kurukshetra)",0
29,Lancelot,Shreyans Borad,"Motilal Nehru National Institute of Technology, Allahabad (MNNITA)",0
30,PragyaVyas,,Institute of Engineering and Technology (IET) Lucknow,0
31,Pulkit__Sharma__,Pulkit Sharma,"Malaviya National Institute of Technology, Jaipur (MNIT Jaipur)",0
32,Rajat%20Thakur%202,Rajats,"National Institute of Technology, Warangal (NIT Warangal)",https://www.linkedin.com/company/geeksforgeeks/
33,Phantom_sixth_man,Shibhu,"National Institute of Technology, Jamshedpur (NIT Jamshedpur)",https://www.linkedin.com/company/geeksforgeeks/
34,sushanto,sushanto,"Jadavpur University, Kolkata",https://www.facebook.com/sushanto.gorain.56
35,Calahan,,A,0
36,__Manish__,maanu,"National Institute of Technology, Tiruchirappalli (NIT Trichy)",0
37,noobie22,warrior,fgh,0
38,Mayank_Songara,Mayank Songara,"National Institute of Technology, Tiruchirappalli (NIT Trichy)",0
39,CAGEROT,,Indian Institute of Technology Varanasi (IIT BHU),0
40,fake_coder,Okka Magaadu,"National Institute of Technology, Warangal (NIT Warangal)",0
41,Haryanvi,Rahul,"National Institute of Technology, Tiruchirappalli (NIT Trichy)",https://https://https://https://None.linkedin.com
42,Vikram%20Sreenivasa,vikram,Indian Institute of Technology Delhi (IIT Delhi),0
43,dummyid1998,,Institute of Engineering and Technology (IET) Lucknow,0
44,AbhishekKRSingh,Abhishek,Indian Institute of Technology Varanasi (IIT BHU),0
45,ashishshrivastava1500,,"Maulana Azad National Institute of Technology, Bhopal (MANIT Bhopal)",0
46,Gvats,Vคtsคl,"Jadavpur University, Kolkata",0
47,simbha,ROHIT JANGID,"National Institute of Technology, Tiruchirappalli (NIT Trichy)",0
48,Devyansh_Ojha,Devyansh Ojha,"KIIT University, Bhubaneswar",https://https://https://Linkedln:www.linkedin.com/in/devyanshojha
