,name,user_name,Institution,link
0,Ditikrushna,Diti,"National Institute of Technology, Tiruchirappalli (NIT Trichy)",0
1,mudita%20saxena,,Delhi Technological University (DTU),0
2,HarshitWalia,Harshit Walia,Delhi Technological University (DTU),https://www.linkedin.com/in/harshit-walia-dtu/
3,em,,"Jadavpur University, Kolkata",0
4,Viveksinghrana,vsr,"Netaji Subhas Institute of Technology, Delhi (NSIT)",0
5,regar_targerian,,"Maulana Azad National Institute of Technology, Bhopal (MANIT Bhopal)",0
6,a1b2c3,NH10,Jadavpur University Faculty of Engineering and Technology Kolkata,0
7,stevecooper,stevecooper,"Anna University, Chennai",https://github.com/keep-smiling
8,Tahseen%20Akram,TAHSEEN AKRAM,"Jadavpur University, Kolkata",0
9,Sahibjot%20Singh,,Chandigarh College of Engineering and Technology (CCET) Chandigarh,0
10,profile,98265,National Institute of Technology,0
11,AsishKumarUpadhyay,AkU19,"Jadavpur University, Kolkata",0
12,_nj,burster,"National Institute of Technology, Tiruchirappalli (NIT Trichy)",0
13,zxy_123_abc,xyz,"National Institute of Technology, Tiruchirappalli (NIT Trichy)",0
14,Yashvi_patel,Yashvi,"National Institute of Technology, Durgapur (NIT Durgapur)",0
15,Kartik%20Rawat,Kartik Rawat,Delhi Technological University (DTU),0
16,rameshsingh,ramesh,"Punjab Engineering College (PEC), Chandigarh",https://https://https://ramesh12345/facebook.com
17,harshtyagi36,Harsh Tyagi,ABES Engineering College Ghaziabad,https://github.com/harshtyagimdr
18,doubtfire,,Indian Institute of Technology Guwahati (IIT Guwahati),0
19,2016uec1342,Code Chef,"Malaviya National Institute of Technology, Jaipur (MNIT Jaipur)",0
20,Dhirendra121,Dhirendra Chaudhary,"KIIT University, Bhubaneswar",https://www.linkedin.com/in/dhirendra-chaudhary-83b930b7
21,souviksarkar9698,souviksarkar9698,Indian Institute of Technology Kharagpur (IIT Kharagpur),0
22,naam_jaanke_kya_karoge,naamjaankekyakaroge,Delhi Technological University (DTU),0
23,Satyam_Chouksey,satyam chouksey,Vellore Institute of Technology (VIT University),0
24,naveen_619,naveen chauhan,"Indian Institute of Technology, Dhanbad (IIT ISM)",0
25,varsha_patidar,Varsha Patidar,"National Institute of Technology, Tiruchirappalli (NIT Trichy)",0
26,KapilChhipa,kapil,National Institute of Technology Calicut,0
27,kunal9724_kg,,"National Institute of Technology, Kurukshetra (NIT Kurukshetra)",0
28,PundirAbhishek,Abhishek Pundir,"Punjab Engineering College (PEC), Chandigarh",0
29,blazerr,,Amity University Noida,0
30,Arun%20Chauhan,Arun Chauhan,"Indian Institute of Technology, Dhanbad (IIT ISM)",0
31,shivuu,shivuu,Vellore Institute of Technology (VIT University),0
32,IDK_%21,DM,"Indian Institute of Technology, Dhanbad (IIT ISM)",0
33,cartmanKFC,cartmanKFC,Delhi Technological University (DTU),https://www.facebook.com/ihatepeople
34,SumitSingh27,Sumit Kumar,"Jadavpur University, Kolkata",0
35,Tom_and_Jerry,Sri Ram,"Madras Institute of Technology, Chennai (MIT Chennai)",https://www.linkedin.com/in/sri-ram-1648a6157/
36,Bukabu,Aditya Kaushik (Bukabu),"National Institute of Technology, Kurukshetra (NIT Kurukshetra)",0
37,giveYourBestWithoutExpectingOutcome,signalAbort,"National Institute of Technology, Warangal (NIT Warangal)",0
38,slow_tourist,agrokxx,"National Institute of Technology, Patna (NIT Patna)",0
39,dev%20chouhan,devkaran chouhan,"National Institute of Technology, Tiruchirappalli (NIT Trichy)",0
40,harshit_,harshit,xyz,0
41,Sahil_Bansall,Sahil Bansal,"Punjab Engineering College (PEC), Chandigarh",https://www.linkedin.com/in/sahil-bansal-8b6ba7117/
42,shwetajee,SJ,"National Institute of Technology, Tiruchirappalli (NIT Trichy)",0
43,aman_Ad,Aman Gupta,"Indian Institute of Technology, Dhanbad (IIT ISM)",0
44,Rugant,,Vellore Institute of Technology (VIT University),0
45,Kumar%20Gaurav%20Singh,Gaurav,Institute of Engineering and Technology (IET) Lucknow,0
46,Rawn96,,"Birla Institute of Technology, Mesra (BIT Mesra)",0
47,SWETA_CHOUDHARY,CodeMonk,"National Institute of Technology, Surathkal (NIT Surathkal)",https://twitter.com/geeksforgeeks
48,db99,debdatta biswas,"Jadavpur University, Kolkata",0
